{
  "EDITOR_STATE": {
    "allProjectFiles": {
      "e3c0932c-0514-45da-9dc2-0569538f7415": {
        "id": "e3c0932c-0514-45da-9dc2-0569538f7415",
        "parent": null,
        "name": "qwainduu.js",
        "type": "JS_LAMBDA",
        "isDirectory": false,
        "children": [],
        "isRemovable": true,
        "filePath": "qwainduu.js",
        "cursor": {
          "lineNumber": 1,
          "column": 1
        },
        "config": {
          "runtime": "nodejs10.x",
          "handler": "handler",
          "timeout": 60,
          "memory": 128,
          "layers": [],
          "name": "qwainduu"
        },
        "triggers": []
      }
    },
    "openFiles": [
      "e3c0932c-0514-45da-9dc2-0569538f7415"
    ],
    "currentFileId": "e3c0932c-0514-45da-9dc2-0569538f7415",
    "resources": {
      "s3as2TestLahiru": {
        "name": "s3as2TestLahiru",
        "type": "S3",
        "config": {
          "mode": 1,
          "bucket": {
            "region": "us-east-1",
            "name": "as2-test-lahiru"
          }
        }
      }
    },
    "customTemplate": {
      "overrideDefault": false,
      "dialect": null,
      "definitions": null
    },
    "envVariables": [
      {
        "lambdaId": "all",
        "varKey": "SIGMA_AWS_ACC_ID",
        "varValue": null,
        "shouldPersist": false,
        "displayOnly": false,
        "editable": false
      }
    ],
    "packageJSON": {
      "dependencies": {
        "aws-sdk": {
          "name": "aws-sdk",
          "language": "nodejs",
          "version": "2.644.0",
          "dev": true,
          "notRemovable": false
        }
      }
    }
  },
  "PROJECT_META": {
    "projectName": "qwainduu",
    "projectDescription": "",
    "projectVersion": "1.0.0",
    "projectRegion": "us-east-1",
    "platform": "AWS",
    "language": "nodejs",
    "platformRegions": {},
    "lastSave": 1586345843367
  },
  "VCS_STATE": {
    "provider": "BitBucket",
    "repo": {
      "name": "qwainduu",
      "url": "https://bitbucket.org/Indunil1992/qwainduu"
    }
  }
}